........
----------------------------------------------------------------------
Ran 8 tests in 0.001s

OK
Name               Stmts   Miss Branch BrPart  Cover   Missing
--------------------------------------------------------------
Diplomacy.py          93      0     62      0   100%
TestDiplomacy.py      44      0      0      0   100%
--------------------------------------------------------------
TOTAL                137      0     62      0   100%

